{
  "////////////////////////////////////": "LAYOUT",
  "HEADER_PHP": "/header.php",
  "HEADER": "/Templates/header.html",
  "FOOTER_PHP": "/footer.php",
  "FOOTER": "/Templates/footer.html",
  "SIDE_BAR_PHP": "/sideBar.php",
  "SIDE_BAR": "/Templates/sideBar.html",
  "CAROUSEL_PHP": "/carousel.php",
  "CAROUSEL": "/Templates/carousel.html",
  "//////////////////////////////////": "PAGES INTERNES",
  "INDEX_PHP": "/index.php",
  "INDEX": "/Templates/index.html",
  "LOGIN_PHP": "/login.php",
  "LOGIN": "/Templates/login.html",
  "INSCRIPTION_PHP": "/inscription.php",
  "INSCRIPTION": "/Templates/inscriptionForm.html",
  "INSCRIPTION_TOKEN_PHP": "/inscriptionToken.php",
  "INSCRIPTION_TOKEN": "/Templates/inscriptionToken.html",
  "ETABLISSEMENT_PHP": "/etablissements.php",
  "ETABLISSEMENT": "/Templates/etablissements.html",
  "GESTION_EVENEMENT_PHP": "/gestionEvenements.php",
  "GESTION_EVENEMENT": "/Templates/gestionEvenements.html",
  "GESTION_PARTAGE_DOC_PHP": "/gestionPartageDoc.php",
  "GESTION_PARTAGE_DOC": "/Templates/gestionPartageDoc.html",
  "FORUM_PHP": "/forum.php",
  "FORUM": "/Templates/forum.html",
  "SUGGESTIONS_PHP": "/suggestions.php",
  "SUGGESTIONS": "/Templates/suggestions.html",
  "NEWS_PHP": "/news.php",
  "NEWS": "/Templates/news.html",
  "FAQ_PHP": "/faq.php",
  "FAQ": "/Templates/faq.html",
  "ASSIDUITE_PHP": "/assiduite.php",
  "ASSIDUITE": "/Templates/assiduite.html",
  "BILAN_FINANCIER_PHP": "/bilanFinancier.php",
  "BILAN_FINANCIER": "/Templates/bilanFinancier.html",
  "SUIVI_FINANCIER_PHP": "/suiviFinancier.php",
  "SUIVI_FINANCIER": "/Templates/suiviFinancier.html",
  "GESTION_MEMBRES_PHP": "/gestionMembres.php",
  "GESTION_MEMBRES": "/Templates/gestionMembres.html",
  "DROITS_PHP": "/droits.php",
  "DROITS": "/Templates/droits.html",
  "SAVE_PHP": "/save.php",
  "SAVE": "/Templates/save.html",
  "RSS_PHP": "/fluxRss.php",
  "RSS": "/Templates/fluxRss.html",
  "RSS_XML_PHP": "/fluxRssXml.php",
  "RSS_XML": "/Templates/fluxRss.xml",
  "MONCOMPTE_PHP": "/monCompte.php",
  "MONCOMPTE": "/Templates/monCompte.html",
  "ERREUR_404_PHP": "/erreur404.php",
  "ERREUR_404": "/Templates/erreur404.html",
  "FAIRE_DON": "/Templates/faireDon.html",
  "NAV_COMPTE_PHP": "/nav_compte.php",
  "NAV_COMPTE": "/Templates/nav_compte.html",
  "/////////////////////////////////////": "LIENS EXTERNES",
  "GOOGLE": "google.fr"
}